*** Darwin 15x20 ***
Turn = 0.
  01234567890123456789
0 .......h...r.r.rrh..
1 ...........t........
2 ..t..rrrtf.........f
3 ..t...r......h..r...
4 ..rff.....f.t.ff....
5 rt.f.f..........f..h
6 ..tf.r.....fr.......
7 .hf.........hf..h...
8 .....f....f..h....h.
9 hh...h.......f.t....
0 ..hf...h.t.f..f...t.
1 .hf..t.thr.tr.h...f.
2 t...thrt..f.........
3 ..f.f....r..t.......
4 t........rt.........

Turn = 42.
  01234567890123456789
0 r..rr.r...t..r.....r
1 r....r.r..t.........
2 ..r.r..r.tt.........
3 r..rr....rr........r
4 .r.rr.t.............
5 r.rrttt.............
6 .........r..........
7 r..r......r.rrr.....
8 ...r......r.r.......
9 .rr.......r.........
0 ...r..ttt....r.r....
1 ....rrr.r...........
2 rtt..rrrr....rr..r.r
3 tt..r..r...........r
4 ttr..r.rrrr.......r.

Turn = 84.
  01234567890123456789
0 rr....rrr...r.....rr
1 rr....r...r........r
2 ..r..r.r..r.........
3 r..r....r...r...r...
4 .rr......r.rr.r.....
5 r...r...rr..r...rr..
6 r..rrr....r.........
7 r..r.....r........r.
8 rrr.......rrr.......
9 r.r...........r....r
0 ..r...rr...r.....r..
1 .rr..........rrrr.r.
2 ...r....r...r.r.....
3 .r...r...r........r.
4 rr..r......r...r.r..

Turn = 126.
  01234567890123456789
0 .rrr.rr.r.........rr
1 rrr....rrr........r.
2 ..r.....rr...rrr.r.r
3 ........r.........r.
4 r......rr.......r...
5 r.............r...r.
6 .r............rr.r..
7 .................r.r
8 r.......r...r.r.....
9 .r......r....r......
0 ...r..rr..r..r..rr..
1 ..r....r.r...r.....r
2 ...r..r....rr....rrr
3 rr.r...rr.....r...r.
4 ..rr...rr..rr..r.r.r

Turn = 168.
  01234567890123456789
0 r.r.rr..r.........r.
1 ..rrrrr............r
2 ..rrrr.r.....rr.r...
3 rrrr.r.r.......r....
4 rrrrr..r...r........
5 rrr.....r...........
6 rrrr...r...rr.......
7 r..r...r.....r......
8 ....r.r.............
9 ....................
0 r....r...rr...rr....
1 rr....rr..rrrr......
2 r.........r........r
3 .........rr.....rr..
4 rr.....r.rrr....rr..

Turn = 210.
  01234567890123456789
0 rrr.r...r....r.r.r..
1 .rr...rr............
2 .rr...r.r...r..r....
3 r.rrr...........r.r.
4 rrr...r........r....
5 rr..r.r.............
6 r.r..rr.r....r.r....
7 rr.r.....r.........r
8 rr...rr..rr..r......
9 .r......r...........
0 ....r.rr...........r
1 r...r...r..r........
2 r..rr..r....rr.r....
3 rr..r.......r..r....
4 ..rrr.......rr....r.

*** Darwin 3x11 ***
Turn = 0.
  01234567890
0 .......t...
1 ...f.......
2 ...t.t.f..r

Turn = 1.
  01234567890
0 .......t...
1 ...f.......
2 ...t.t.f.r.

Turn = 2.
  01234567890
0 .......t...
1 ...t.......
2 ...t.t.fr..

Turn = 3.
  01234567890
0 .......t...
1 ...t.......
2 ...t.t.rr..

Turn = 4.
  01234567890
0 .......t...
1 ...t...r...
2 ...t.t.r...

Turn = 5.
  01234567890
0 .......t...
1 ...t...t...
2 ...t.tr....

Turn = 6.
  01234567890
0 .......t...
1 ...t...t...
2 ...t.rr....

Turn = 7.
  01234567890
0 .......t...
1 ...t...t...
2 ...t.rr....

Turn = 8.
  01234567890
0 .......t...
1 ...t...t...
2 ...tr.r....

Turn = 9.
  01234567890
0 .......t...
1 ...t...t...
2 ...rrr.....

Turn = 10.
  01234567890
0 .......t...
1 ...t...t...
2 ...rrr.....

Turn = 11.
  01234567890
0 .......t...
1 ...trr.t...
2 ...t.......

Turn = 12.
  01234567890
0 ....rr.t...
1 ...t...t...
2 ...t.......

Turn = 13.
  01234567890
0 ....rr.t...
1 ...t...t...
2 ...t.......

Turn = 14.
  01234567890
0 ...tr..t...
1 ...t...t...
2 ...t.......

Turn = 15.
  01234567890
0 ...tr..t...
1 ...t...t...
2 ...t.......

Turn = 16.
  01234567890
0 ...tr..t...
1 ...t...t...
2 ...t.......

Turn = 17.
  01234567890
0 ...tt..t...
1 ...t...t...
2 ...t.......

Turn = 18.
  01234567890
0 ...tt..t...
1 ...t...t...
2 ...t.......

Turn = 19.
  01234567890
0 ...tt..t...
1 ...t...t...
2 ...t.......

Turn = 20.
  01234567890
0 ...tt..t...
1 ...t...t...
2 ...t.......

Turn = 21.
  01234567890
0 ...tt..t...
1 ...t...t...
2 ...t.......

Turn = 22.
  01234567890
0 ...tt..t...
1 ...t...t...
2 ...t.......

Turn = 23.
  01234567890
0 ...tt..t...
1 ...t...t...
2 ...t.......

Turn = 24.
  01234567890
0 ...tt..t...
1 ...t...t...
2 ...t.......

Turn = 25.
  01234567890
0 ...tt..t...
1 ...t...t...
2 ...t.......

Turn = 26.
  01234567890
0 ...tt..t...
1 ...t...t...
2 ...t.......

Turn = 27.
  01234567890
0 ...tt..t...
1 ...t...t...
2 ...t.......

Turn = 28.
  01234567890
0 ...tt..t...
1 ...t...t...
2 ...t.......

Turn = 29.
  01234567890
0 ...tt..t...
1 ...t...t...
2 ...t.......

Turn = 30.
  01234567890
0 ...tt..t...
1 ...t...t...
2 ...t.......

Turn = 31.
  01234567890
0 ...tt..t...
1 ...t...t...
2 ...t.......

Turn = 32.
  01234567890
0 ...tt..t...
1 ...t...t...
2 ...t.......

Turn = 33.
  01234567890
0 ...tt..t...
1 ...t...t...
2 ...t.......

Turn = 34.
  01234567890
0 ...tt..t...
1 ...t...t...
2 ...t.......

Turn = 35.
  01234567890
0 ...tt..t...
1 ...t...t...
2 ...t.......

Turn = 36.
  01234567890
0 ...tt..t...
1 ...t...t...
2 ...t.......

Turn = 37.
  01234567890
0 ...tt..t...
1 ...t...t...
2 ...t.......

Turn = 38.
  01234567890
0 ...tt..t...
1 ...t...t...
2 ...t.......

Turn = 39.
  01234567890
0 ...tt..t...
1 ...t...t...
2 ...t.......

Turn = 40.
  01234567890
0 ...tt..t...
1 ...t...t...
2 ...t.......

Turn = 41.
  01234567890
0 ...tt..t...
1 ...t...t...
2 ...t.......

Turn = 42.
  01234567890
0 ...tt..t...
1 ...t...t...
2 ...t.......

Turn = 43.
  01234567890
0 ...tt..t...
1 ...t...t...
2 ...t.......

Turn = 44.
  01234567890
0 ...tt..t...
1 ...t...t...
2 ...t.......

Turn = 45.
  01234567890
0 ...tt..t...
1 ...t...t...
2 ...t.......

Turn = 46.
  01234567890
0 ...tt..t...
1 ...t...t...
2 ...t.......

Turn = 47.
  01234567890
0 ...tt..t...
1 ...t...t...
2 ...t.......

Turn = 48.
  01234567890
0 ...tt..t...
1 ...t...t...
2 ...t.......

Turn = 49.
  01234567890
0 ...tt..t...
1 ...t...t...
2 ...t.......

Turn = 50.
  01234567890
0 ...tt..t...
1 ...t...t...
2 ...t.......

Turn = 51.
  01234567890
0 ...tt..t...
1 ...t...t...
2 ...t.......

Turn = 52.
  01234567890
0 ...tt..t...
1 ...t...t...
2 ...t.......

Turn = 53.
  01234567890
0 ...tt..t...
1 ...t...t...
2 ...t.......

Turn = 54.
  01234567890
0 ...tt..t...
1 ...t...t...
2 ...t.......

Turn = 55.
  01234567890
0 ...tt..t...
1 ...t...t...
2 ...t.......

Turn = 56.
  01234567890
0 ...tt..t...
1 ...t...t...
2 ...t.......

Turn = 57.
  01234567890
0 ...tt..t...
1 ...t...t...
2 ...t.......

Turn = 58.
  01234567890
0 ...tt..t...
1 ...t...t...
2 ...t.......

Turn = 59.
  01234567890
0 ...tt..t...
1 ...t...t...
2 ...t.......

Turn = 60.
  01234567890
0 ...tt..t...
1 ...t...t...
2 ...t.......

Turn = 61.
  01234567890
0 ...tt..t...
1 ...t...t...
2 ...t.......

Turn = 62.
  01234567890
0 ...tt..t...
1 ...t...t...
2 ...t.......

Turn = 63.
  01234567890
0 ...tt..t...
1 ...t...t...
2 ...t.......

Turn = 64.
  01234567890
0 ...tt..t...
1 ...t...t...
2 ...t.......

Turn = 65.
  01234567890
0 ...tt..t...
1 ...t...t...
2 ...t.......

Turn = 66.
  01234567890
0 ...tt..t...
1 ...t...t...
2 ...t.......

Turn = 67.
  01234567890
0 ...tt..t...
1 ...t...t...
2 ...t.......

Turn = 68.
  01234567890
0 ...tt..t...
1 ...t...t...
2 ...t.......

Turn = 69.
  01234567890
0 ...tt..t...
1 ...t...t...
2 ...t.......

Turn = 70.
  01234567890
0 ...tt..t...
1 ...t...t...
2 ...t.......

Turn = 71.
  01234567890
0 ...tt..t...
1 ...t...t...
2 ...t.......

Turn = 72.
  01234567890
0 ...tt..t...
1 ...t...t...
2 ...t.......

Turn = 73.
  01234567890
0 ...tt..t...
1 ...t...t...
2 ...t.......

Turn = 74.
  01234567890
0 ...tt..t...
1 ...t...t...
2 ...t.......

Turn = 75.
  01234567890
0 ...tt..t...
1 ...t...t...
2 ...t.......

Turn = 76.
  01234567890
0 ...tt..t...
1 ...t...t...
2 ...t.......

Turn = 77.
  01234567890
0 ...tt..t...
1 ...t...t...
2 ...t.......

Turn = 78.
  01234567890
0 ...tt..t...
1 ...t...t...
2 ...t.......

Turn = 79.
  01234567890
0 ...tt..t...
1 ...t...t...
2 ...t.......

Turn = 80.
  01234567890
0 ...tt..t...
1 ...t...t...
2 ...t.......

Turn = 81.
  01234567890
0 ...tt..t...
1 ...t...t...
2 ...t.......

Turn = 82.
  01234567890
0 ...tt..t...
1 ...t...t...
2 ...t.......

Turn = 83.
  01234567890
0 ...tt..t...
1 ...t...t...
2 ...t.......

Turn = 84.
  01234567890
0 ...tt..t...
1 ...t...t...
2 ...t.......

Turn = 85.
  01234567890
0 ...tt..t...
1 ...t...t...
2 ...t.......

Turn = 86.
  01234567890
0 ...tt..t...
1 ...t...t...
2 ...t.......

Turn = 87.
  01234567890
0 ...tt..t...
1 ...t...t...
2 ...t.......

Turn = 88.
  01234567890
0 ...tt..t...
1 ...t...t...
2 ...t.......

Turn = 89.
  01234567890
0 ...tt..t...
1 ...t...t...
2 ...t.......

Turn = 90.
  01234567890
0 ...tt..t...
1 ...t...t...
2 ...t.......

Turn = 91.
  01234567890
0 ...tt..t...
1 ...t...t...
2 ...t.......

Turn = 92.
  01234567890
0 ...tt..t...
1 ...t...t...
2 ...t.......

Turn = 93.
  01234567890
0 ...tt..t...
1 ...t...t...
2 ...t.......

Turn = 94.
  01234567890
0 ...tt..t...
1 ...t...t...
2 ...t.......

Turn = 95.
  01234567890
0 ...tt..t...
1 ...t...t...
2 ...t.......

Turn = 96.
  01234567890
0 ...tt..t...
1 ...t...t...
2 ...t.......

Turn = 97.
  01234567890
0 ...tt..t...
1 ...t...t...
2 ...t.......

Turn = 98.
  01234567890
0 ...tt..t...
1 ...t...t...
2 ...t.......

Turn = 99.
  01234567890
0 ...tt..t...
1 ...t...t...
2 ...t.......

Turn = 100.
  01234567890
0 ...tt..t...
1 ...t...t...
2 ...t.......

Turn = 101.
  01234567890
0 ...tt..t...
1 ...t...t...
2 ...t.......

Turn = 102.
  01234567890
0 ...tt..t...
1 ...t...t...
2 ...t.......

Turn = 103.
  01234567890
0 ...tt..t...
1 ...t...t...
2 ...t.......

Turn = 104.
  01234567890
0 ...tt..t...
1 ...t...t...
2 ...t.......

Turn = 105.
  01234567890
0 ...tt..t...
1 ...t...t...
2 ...t.......

Turn = 106.
  01234567890
0 ...tt..t...
1 ...t...t...
2 ...t.......

Turn = 107.
  01234567890
0 ...tt..t...
1 ...t...t...
2 ...t.......

Turn = 108.
  01234567890
0 ...tt..t...
1 ...t...t...
2 ...t.......

Turn = 109.
  01234567890
0 ...tt..t...
1 ...t...t...
2 ...t.......

Turn = 110.
  01234567890
0 ...tt..t...
1 ...t...t...
2 ...t.......

Turn = 111.
  01234567890
0 ...tt..t...
1 ...t...t...
2 ...t.......

Turn = 112.
  01234567890
0 ...tt..t...
1 ...t...t...
2 ...t.......

Turn = 113.
  01234567890
0 ...tt..t...
1 ...t...t...
2 ...t.......

Turn = 114.
  01234567890
0 ...tt..t...
1 ...t...t...
2 ...t.......

Turn = 115.
  01234567890
0 ...tt..t...
1 ...t...t...
2 ...t.......

Turn = 116.
  01234567890
0 ...tt..t...
1 ...t...t...
2 ...t.......

Turn = 117.
  01234567890
0 ...tt..t...
1 ...t...t...
2 ...t.......

Turn = 118.
  01234567890
0 ...tt..t...
1 ...t...t...
2 ...t.......

Turn = 119.
  01234567890
0 ...tt..t...
1 ...t...t...
2 ...t.......

Turn = 120.
  01234567890
0 ...tt..t...
1 ...t...t...
2 ...t.......

Turn = 121.
  01234567890
0 ...tt..t...
1 ...t...t...
2 ...t.......

Turn = 122.
  01234567890
0 ...tt..t...
1 ...t...t...
2 ...t.......

Turn = 123.
  01234567890
0 ...tt..t...
1 ...t...t...
2 ...t.......

Turn = 124.
  01234567890
0 ...tt..t...
1 ...t...t...
2 ...t.......

Turn = 125.
  01234567890
0 ...tt..t...
1 ...t...t...
2 ...t.......

Turn = 126.
  01234567890
0 ...tt..t...
1 ...t...t...
2 ...t.......

Turn = 127.
  01234567890
0 ...tt..t...
1 ...t...t...
2 ...t.......

Turn = 128.
  01234567890
0 ...tt..t...
1 ...t...t...
2 ...t.......

Turn = 129.
  01234567890
0 ...tt..t...
1 ...t...t...
2 ...t.......

Turn = 130.
  01234567890
0 ...tt..t...
1 ...t...t...
2 ...t.......

Turn = 131.
  01234567890
0 ...tt..t...
1 ...t...t...
2 ...t.......

Turn = 132.
  01234567890
0 ...tt..t...
1 ...t...t...
2 ...t.......

Turn = 133.
  01234567890
0 ...tt..t...
1 ...t...t...
2 ...t.......

Turn = 134.
  01234567890
0 ...tt..t...
1 ...t...t...
2 ...t.......

Turn = 135.
  01234567890
0 ...tt..t...
1 ...t...t...
2 ...t.......

Turn = 136.
  01234567890
0 ...tt..t...
1 ...t...t...
2 ...t.......

Turn = 137.
  01234567890
0 ...tt..t...
1 ...t...t...
2 ...t.......

Turn = 138.
  01234567890
0 ...tt..t...
1 ...t...t...
2 ...t.......

Turn = 139.
  01234567890
0 ...tt..t...
1 ...t...t...
2 ...t.......

Turn = 140.
  01234567890
0 ...tt..t...
1 ...t...t...
2 ...t.......

Turn = 141.
  01234567890
0 ...tt..t...
1 ...t...t...
2 ...t.......

Turn = 142.
  01234567890
0 ...tt..t...
1 ...t...t...
2 ...t.......

Turn = 143.
  01234567890
0 ...tt..t...
1 ...t...t...
2 ...t.......

Turn = 144.
  01234567890
0 ...tt..t...
1 ...t...t...
2 ...t.......

Turn = 145.
  01234567890
0 ...tt..t...
1 ...t...t...
2 ...t.......

Turn = 146.
  01234567890
0 ...tt..t...
1 ...t...t...
2 ...t.......

Turn = 147.
  01234567890
0 ...tt..t...
1 ...t...t...
2 ...t.......

Turn = 148.
  01234567890
0 ...tt..t...
1 ...t...t...
2 ...t.......

Turn = 149.
  01234567890
0 ...tt..t...
1 ...t...t...
2 ...t.......

Turn = 150.
  01234567890
0 ...tt..t...
1 ...t...t...
2 ...t.......

Turn = 151.
  01234567890
0 ...tt..t...
1 ...t...t...
2 ...t.......

Turn = 152.
  01234567890
0 ...tt..t...
1 ...t...t...
2 ...t.......

Turn = 153.
  01234567890
0 ...tt..t...
1 ...t...t...
2 ...t.......

Turn = 154.
  01234567890
0 ...tt..t...
1 ...t...t...
2 ...t.......

Turn = 155.
  01234567890
0 ...tt..t...
1 ...t...t...
2 ...t.......

Turn = 156.
  01234567890
0 ...tt..t...
1 ...t...t...
2 ...t.......

Turn = 157.
  01234567890
0 ...tt..t...
1 ...t...t...
2 ...t.......

Turn = 158.
  01234567890
0 ...tt..t...
1 ...t...t...
2 ...t.......

Turn = 159.
  01234567890
0 ...tt..t...
1 ...t...t...
2 ...t.......

Turn = 160.
  01234567890
0 ...tt..t...
1 ...t...t...
2 ...t.......

Turn = 161.
  01234567890
0 ...tt..t...
1 ...t...t...
2 ...t.......

Turn = 162.
  01234567890
0 ...tt..t...
1 ...t...t...
2 ...t.......

Turn = 163.
  01234567890
0 ...tt..t...
1 ...t...t...
2 ...t.......

Turn = 164.
  01234567890
0 ...tt..t...
1 ...t...t...
2 ...t.......

Turn = 165.
  01234567890
0 ...tt..t...
1 ...t...t...
2 ...t.......

Turn = 166.
  01234567890
0 ...tt..t...
1 ...t...t...
2 ...t.......

Turn = 167.
  01234567890
0 ...tt..t...
1 ...t...t...
2 ...t.......

Turn = 168.
  01234567890
0 ...tt..t...
1 ...t...t...
2 ...t.......

Turn = 169.
  01234567890
0 ...tt..t...
1 ...t...t...
2 ...t.......

Turn = 170.
  01234567890
0 ...tt..t...
1 ...t...t...
2 ...t.......

Turn = 171.
  01234567890
0 ...tt..t...
1 ...t...t...
2 ...t.......

Turn = 172.
  01234567890
0 ...tt..t...
1 ...t...t...
2 ...t.......

Turn = 173.
  01234567890
0 ...tt..t...
1 ...t...t...
2 ...t.......

Turn = 174.
  01234567890
0 ...tt..t...
1 ...t...t...
2 ...t.......

Turn = 175.
  01234567890
0 ...tt..t...
1 ...t...t...
2 ...t.......

Turn = 176.
  01234567890
0 ...tt..t...
1 ...t...t...
2 ...t.......

Turn = 177.
  01234567890
0 ...tt..t...
1 ...t...t...
2 ...t.......

Turn = 178.
  01234567890
0 ...tt..t...
1 ...t...t...
2 ...t.......

Turn = 179.
  01234567890
0 ...tt..t...
1 ...t...t...
2 ...t.......

Turn = 180.
  01234567890
0 ...tt..t...
1 ...t...t...
2 ...t.......

Turn = 181.
  01234567890
0 ...tt..t...
1 ...t...t...
2 ...t.......

Turn = 182.
  01234567890
0 ...tt..t...
1 ...t...t...
2 ...t.......

Turn = 183.
  01234567890
0 ...tt..t...
1 ...t...t...
2 ...t.......

Turn = 184.
  01234567890
0 ...tt..t...
1 ...t...t...
2 ...t.......

Turn = 185.
  01234567890
0 ...tt..t...
1 ...t...t...
2 ...t.......

Turn = 186.
  01234567890
0 ...tt..t...
1 ...t...t...
2 ...t.......

Turn = 187.
  01234567890
0 ...tt..t...
1 ...t...t...
2 ...t.......

Turn = 188.
  01234567890
0 ...tt..t...
1 ...t...t...
2 ...t.......

Turn = 189.
  01234567890
0 ...tt..t...
1 ...t...t...
2 ...t.......

Turn = 190.
  01234567890
0 ...tt..t...
1 ...t...t...
2 ...t.......

Turn = 191.
  01234567890
0 ...tt..t...
1 ...t...t...
2 ...t.......

Turn = 192.
  01234567890
0 ...tt..t...
1 ...t...t...
2 ...t.......

Turn = 193.
  01234567890
0 ...tt..t...
1 ...t...t...
2 ...t.......

Turn = 194.
  01234567890
0 ...tt..t...
1 ...t...t...
2 ...t.......

Turn = 195.
  01234567890
0 ...tt..t...
1 ...t...t...
2 ...t.......

Turn = 196.
  01234567890
0 ...tt..t...
1 ...t...t...
2 ...t.......

Turn = 197.
  01234567890
0 ...tt..t...
1 ...t...t...
2 ...t.......

Turn = 198.
  01234567890
0 ...tt..t...
1 ...t...t...
2 ...t.......

Turn = 199.
  01234567890
0 ...tt..t...
1 ...t...t...
2 ...t.......

Turn = 200.
  01234567890
0 ...tt..t...
1 ...t...t...
2 ...t.......

Turn = 201.
  01234567890
0 ...tt..t...
1 ...t...t...
2 ...t.......

Turn = 202.
  01234567890
0 ...tt..t...
1 ...t...t...
2 ...t.......

Turn = 203.
  01234567890
0 ...tt..t...
1 ...t...t...
2 ...t.......

Turn = 204.
  01234567890
0 ...tt..t...
1 ...t...t...
2 ...t.......

Turn = 205.
  01234567890
0 ...tt..t...
1 ...t...t...
2 ...t.......

Turn = 206.
  01234567890
0 ...tt..t...
1 ...t...t...
2 ...t.......

Turn = 207.
  01234567890
0 ...tt..t...
1 ...t...t...
2 ...t.......

Turn = 208.
  01234567890
0 ...tt..t...
1 ...t...t...
2 ...t.......

Turn = 209.
  01234567890
0 ...tt..t...
1 ...t...t...
2 ...t.......

Turn = 210.
  01234567890
0 ...tt..t...
1 ...t...t...
2 ...t.......

Turn = 211.
  01234567890
0 ...tt..t...
1 ...t...t...
2 ...t.......

Turn = 212.
  01234567890
0 ...tt..t...
1 ...t...t...
2 ...t.......

Turn = 213.
  01234567890
0 ...tt..t...
1 ...t...t...
2 ...t.......

Turn = 214.
  01234567890
0 ...tt..t...
1 ...t...t...
2 ...t.......

Turn = 215.
  01234567890
0 ...tt..t...
1 ...t...t...
2 ...t.......

Turn = 216.
  01234567890
0 ...tt..t...
1 ...t...t...
2 ...t.......

Turn = 217.
  01234567890
0 ...tt..t...
1 ...t...t...
2 ...t.......

Turn = 218.
  01234567890
0 ...tt..t...
1 ...t...t...
2 ...t.......

Turn = 219.
  01234567890
0 ...tt..t...
1 ...t...t...
2 ...t.......

Turn = 220.
  01234567890
0 ...tt..t...
1 ...t...t...
2 ...t.......

Turn = 221.
  01234567890
0 ...tt..t...
1 ...t...t...
2 ...t.......

Turn = 222.
  01234567890
0 ...tt..t...
1 ...t...t...
2 ...t.......

Turn = 223.
  01234567890
0 ...tt..t...
1 ...t...t...
2 ...t.......

Turn = 224.
  01234567890
0 ...tt..t...
1 ...t...t...
2 ...t.......

Turn = 225.
  01234567890
0 ...tt..t...
1 ...t...t...
2 ...t.......

Turn = 226.
  01234567890
0 ...tt..t...
1 ...t...t...
2 ...t.......

Turn = 227.
  01234567890
0 ...tt..t...
1 ...t...t...
2 ...t.......

Turn = 228.
  01234567890
0 ...tt..t...
1 ...t...t...
2 ...t.......

Turn = 229.
  01234567890
0 ...tt..t...
1 ...t...t...
2 ...t.......

Turn = 230.
  01234567890
0 ...tt..t...
1 ...t...t...
2 ...t.......

Turn = 231.
  01234567890
0 ...tt..t...
1 ...t...t...
2 ...t.......

Turn = 232.
  01234567890
0 ...tt..t...
1 ...t...t...
2 ...t.......

Turn = 233.
  01234567890
0 ...tt..t...
1 ...t...t...
2 ...t.......

Turn = 234.
  01234567890
0 ...tt..t...
1 ...t...t...
2 ...t.......

Turn = 235.
  01234567890
0 ...tt..t...
1 ...t...t...
2 ...t.......

Turn = 236.
  01234567890
0 ...tt..t...
1 ...t...t...
2 ...t.......

Turn = 237.
  01234567890
0 ...tt..t...
1 ...t...t...
2 ...t.......

Turn = 238.
  01234567890
0 ...tt..t...
1 ...t...t...
2 ...t.......

Turn = 239.
  01234567890
0 ...tt..t...
1 ...t...t...
2 ...t.......

Turn = 240.
  01234567890
0 ...tt..t...
1 ...t...t...
2 ...t.......

Turn = 241.
  01234567890
0 ...tt..t...
1 ...t...t...
2 ...t.......

Turn = 242.
  01234567890
0 ...tt..t...
1 ...t...t...
2 ...t.......

Turn = 243.
  01234567890
0 ...tt..t...
1 ...t...t...
2 ...t.......

Turn = 244.
  01234567890
0 ...tt..t...
1 ...t...t...
2 ...t.......

Turn = 245.
  01234567890
0 ...tt..t...
1 ...t...t...
2 ...t.......

Turn = 246.
  01234567890
0 ...tt..t...
1 ...t...t...
2 ...t.......

Turn = 247.
  01234567890
0 ...tt..t...
1 ...t...t...
2 ...t.......

Turn = 248.
  01234567890
0 ...tt..t...
1 ...t...t...
2 ...t.......

Turn = 249.
  01234567890
0 ...tt..t...
1 ...t...t...
2 ...t.......

Turn = 250.
  01234567890
0 ...tt..t...
1 ...t...t...
2 ...t.......

Turn = 251.
  01234567890
0 ...tt..t...
1 ...t...t...
2 ...t.......

Turn = 252.
  01234567890
0 ...tt..t...
1 ...t...t...
2 ...t.......

Turn = 253.
  01234567890
0 ...tt..t...
1 ...t...t...
2 ...t.......

Turn = 254.
  01234567890
0 ...tt..t...
1 ...t...t...
2 ...t.......

Turn = 255.
  01234567890
0 ...tt..t...
1 ...t...t...
2 ...t.......

Turn = 256.
  01234567890
0 ...tt..t...
1 ...t...t...
2 ...t.......

Turn = 257.
  01234567890
0 ...tt..t...
1 ...t...t...
2 ...t.......

Turn = 258.
  01234567890
0 ...tt..t...
1 ...t...t...
2 ...t.......

Turn = 259.
  01234567890
0 ...tt..t...
1 ...t...t...
2 ...t.......

Turn = 260.
  01234567890
0 ...tt..t...
1 ...t...t...
2 ...t.......

Turn = 261.
  01234567890
0 ...tt..t...
1 ...t...t...
2 ...t.......

Turn = 262.
  01234567890
0 ...tt..t...
1 ...t...t...
2 ...t.......

Turn = 263.
  01234567890
0 ...tt..t...
1 ...t...t...
2 ...t.......

Turn = 264.
  01234567890
0 ...tt..t...
1 ...t...t...
2 ...t.......

Turn = 265.
  01234567890
0 ...tt..t...
1 ...t...t...
2 ...t.......

Turn = 266.
  01234567890
0 ...tt..t...
1 ...t...t...
2 ...t.......

Turn = 267.
  01234567890
0 ...tt..t...
1 ...t...t...
2 ...t.......

Turn = 268.
  01234567890
0 ...tt..t...
1 ...t...t...
2 ...t.......

Turn = 269.
  01234567890
0 ...tt..t...
1 ...t...t...
2 ...t.......

Turn = 270.
  01234567890
0 ...tt..t...
1 ...t...t...
2 ...t.......

Turn = 271.
  01234567890
0 ...tt..t...
1 ...t...t...
2 ...t.......

Turn = 272.
  01234567890
0 ...tt..t...
1 ...t...t...
2 ...t.......

Turn = 273.
  01234567890
0 ...tt..t...
1 ...t...t...
2 ...t.......

Turn = 274.
  01234567890
0 ...tt..t...
1 ...t...t...
2 ...t.......

Turn = 275.
  01234567890
0 ...tt..t...
1 ...t...t...
2 ...t.......

Turn = 276.
  01234567890
0 ...tt..t...
1 ...t...t...
2 ...t.......

Turn = 277.
  01234567890
0 ...tt..t...
1 ...t...t...
2 ...t.......

Turn = 278.
  01234567890
0 ...tt..t...
1 ...t...t...
2 ...t.......

Turn = 279.
  01234567890
0 ...tt..t...
1 ...t...t...
2 ...t.......

Turn = 280.
  01234567890
0 ...tt..t...
1 ...t...t...
2 ...t.......

Turn = 281.
  01234567890
0 ...tt..t...
1 ...t...t...
2 ...t.......

Turn = 282.
  01234567890
0 ...tt..t...
1 ...t...t...
2 ...t.......

Turn = 283.
  01234567890
0 ...tt..t...
1 ...t...t...
2 ...t.......

Turn = 284.
  01234567890
0 ...tt..t...
1 ...t...t...
2 ...t.......

Turn = 285.
  01234567890
0 ...tt..t...
1 ...t...t...
2 ...t.......

Turn = 286.
  01234567890
0 ...tt..t...
1 ...t...t...
2 ...t.......

Turn = 287.
  01234567890
0 ...tt..t...
1 ...t...t...
2 ...t.......

Turn = 288.
  01234567890
0 ...tt..t...
1 ...t...t...
2 ...t.......

Turn = 289.
  01234567890
0 ...tt..t...
1 ...t...t...
2 ...t.......

Turn = 290.
  01234567890
0 ...tt..t...
1 ...t...t...
2 ...t.......

Turn = 291.
  01234567890
0 ...tt..t...
1 ...t...t...
2 ...t.......

Turn = 292.
  01234567890
0 ...tt..t...
1 ...t...t...
2 ...t.......

Turn = 293.
  01234567890
0 ...tt..t...
1 ...t...t...
2 ...t.......

Turn = 294.
  01234567890
0 ...tt..t...
1 ...t...t...
2 ...t.......

Turn = 295.
  01234567890
0 ...tt..t...
1 ...t...t...
2 ...t.......

Turn = 296.
  01234567890
0 ...tt..t...
1 ...t...t...
2 ...t.......

Turn = 297.
  01234567890
0 ...tt..t...
1 ...t...t...
2 ...t.......

Turn = 298.
  01234567890
0 ...tt..t...
1 ...t...t...
2 ...t.......

Turn = 299.
  01234567890
0 ...tt..t...
1 ...t...t...
2 ...t.......

Turn = 300.
  01234567890
0 ...tt..t...
1 ...t...t...
2 ...t.......

Turn = 301.
  01234567890
0 ...tt..t...
1 ...t...t...
2 ...t.......

Turn = 302.
  01234567890
0 ...tt..t...
1 ...t...t...
2 ...t.......

Turn = 303.
  01234567890
0 ...tt..t...
1 ...t...t...
2 ...t.......

Turn = 304.
  01234567890
0 ...tt..t...
1 ...t...t...
2 ...t.......

Turn = 305.
  01234567890
0 ...tt..t...
1 ...t...t...
2 ...t.......

*** Darwin 9x18 ***
Turn = 0.
  012345678901234567
0 ..hh.fr.....t.....
1 h...t......hr..fr.
2 t.f.r.h.......r.f.
3 f...hf.r...t.r....
4 .frf.h...f.fh...t.
5 ..rr.h.fr.th.tf.t.
6 r...f..ht.hf....t.
7 .....h..h..tf..h..
8 h.tf..t.ft.t.h..tt

Turn = 62.
  012345678901234567
0 r.r..r.....r.....r
1 rrr..............r
2 r..........t......
3 .r.....r..tt......
4 rtr.........ttt.r.
5 rtt...r.r...tt....
6 ttt..ttt...ttt....
7 ..t.ttttt..ttttt..
8 ...tttttttttttttt.

Turn = 124.
  012345678901234567
0 ........r........r
1 ..................
2 t.t...............
3 ttt.........t.t...
4 tt.........tttt...
5 ttt....tt.tttt....
6 ttt..tttt..ttt.tt.
7 ..t.tttttt.tttttt.
8 ...tttttttttttttt.

Turn = 186.
  012345678901234567
0 ..................
1 ..................
2 t.t...............
3 ttt.........t.t...
4 tt.........tttt...
5 ttt....tt.tttt....
6 ttt.ttttt..ttt.tt.
7 ..t.tttttt.tttttt.
8 ...ttttttttttttttt

Turn = 248.
  012345678901234567
0 ..................
1 ..................
2 t.t...............
3 ttt.........t.t...
4 tt.........tttt...
5 ttt....tt.tttt....
6 ttt.ttttt..ttt.tt.
7 ..t.tttttt.tttttt.
8 ...ttttttttttttttt

*** Darwin 4x18 ***
Turn = 0.
  012345678901234567
0 h...ht.h....t.....
1 ...........t.f.f..
2 .............h...h
3 ..r.rt......trh.tt

Turn = 44.
  012345678901234567
0 .r.........trrtrrr
1 .r.........rrtt..r
2 r..............r..
3 r...............r.

Turn = 88.
  012345678901234567
0 rr..r...r.........
1 rr........r.......
2 rrrr.....r........
3 rrr....r..r......r

Turn = 132.
  012345678901234567
0 ........rrr..rr..r
1 ...............rr.
2 .....r...r..r....r
3 ..r..r..r..r....rr

Turn = 176.
  012345678901234567
0 ..r.....r.....rrrr
1 ........r...rr.r.r
2 ............rr...r
3 .............rr.rr

*** Darwin 9x10 ***
Turn = 0.
  0123456789
0 ...r..rt.t
1 ..........
2 ....t..t..
3 ..f..f....
4 ..........
5 .........h
6 ....f.....
7 f..h...tfh
8 ......t...

Turn = 68.
  0123456789
0 .......r..
1 ....t..tt.
2 ....t..t..
3 ..f..f....
4 ..........
5 ..........
6 ........tt
7 .......ttt
8 ....ttt...

*** Darwin 16x18 ***
Turn = 0.
  012345678901234567
0 h.h.....fr..f..hh.
1 ....h..hh..f...r.t
2 ...t.....t.th.ft..
3 h.......r.h.r..ttr
4 .h.ff..th.......tf
5 ht.t.t....f.t.r..h
6 ...rf..rf.f..t.h.f
7 .rfhh.tf..h..rtr.r
8 rr.f..ht.h.tf..h..
9 ..t..r..rt..rf....
0 .fh.hf.h.....r..t.
1 ....f..f.hh..r....
2 h...t...t.hht.f...
3 .f...h...r.h...t.r
4 .f.f..ft.t...fr.r.
5 ....h....ff...frh.

*** Darwin 19x18 ***
Turn = 0.
  012345678901234567
0 .rt....t..tr...f..
1 .................f
2 t..hrf.h...t.h.r.h
3 ....ht.....f....r.
4 ..f...tthfrr......
5 ...t....r.tttf....
6 ..t....ht.h..f....
7 ..hf.....tt.h.....
8 ..h..f..r....hh...
9 .tt..f......rh....
0 ...fh...f.........
1 rt...h.f.tfr.rh..f
2 ..rht.tt....f.h.hf
3 ...r.hf.......f.hf
4 ......r..t.t.r.hr.
5 ...th.h......h.rt.
6 ..fhf........h..h.
7 ....f....f........
8 ......r..t.h....r.

Turn = 16.
  012345678901234567
0 ...rr.rt...rt..f..
1 .....r.tt.r..r...f
2 ..r..............r
3 ....rrtt....r...rr
4 ....r.tt.rrr......
5 rr...rt..r.....rr.
6 rr......r....rr...
7 .r.......ttr......
8 ..............r.r.
9 ..r..r.r..r.....r.
0 ........r.rr......
1 r....r...rr.r....r
2 ....t.rr.rr.......
3 ...r..rrrrr......r
4 .r.r..r..t.r....r.
5 rrrr..r.rrr......r
6 r.r.f....rr..r..rr
7 ....f..r..........
8 rr...r...rr...r.r.

Turn = 32.
  012345678901234567
0 ..rr..r.r..rr.rrrr
1 .r.r..r......r..rr
2 rr...r....r......r
3 ..r.....tt.r......
4 rrrr....t.rr...r..
5 ......r.rr.rr.....
6 r.....r.r...rr.r..
7 r.r.......r...r..r
8 rr................
9 .............r....
0 ...........rrr...r
1 ..r..r....r...r...
2 .r...r.....r......
3 ..rr....r..r......
4 ..rr.rr...r.......
5 rr.r..r.....r.....
6 rr...rr....r......
7 rrrr.r.r.rr.......
8 rrrrrr.rr.rrr.r.rr

Turn = 48.
  012345678901234567
0 rr.rr.r..rr.rr..rr
1 rr.r...r....r.rr..
2 .......r.r...r...r
3 ......r...r.......
4 ......r....r......
5 ......r.......r.rr
6 .r..r.......r.r...
7 r.r..r.........r..
8 rrr..r.......r...r
9 r.......r...rr....
0 r.rr..r....rr.....
1 rr.rr.r..r..rr....
2 rr.r.........r.r..
3 r.........r....r.r
4 r.r.....rrr.r....r
5 ...rr.rr......r...
6 r....r...r..r..r.r
7 r.rr............rr
8 ..rr.rrr..rrrr...r

Turn = 64.
  012345678901234567
0 .rr....rrr......rr
1 ..r...............
2 rr.rr..r....r.r...
3 r..r.r.....rr.....
4 ...r...r..........
5 .rrr....r.......rr
6 r...rr..r......r..
7 r........r........
8 rr......rr.......r
9 r...r....rrr......
0 rrr.rr...r...rrr.r
1 r......r...rr....r
2 .r.....r.........r
3 ...r.......r...r..
4 ..r........rr.....
5 r.rr.r..rrr.rr.rr.
6 r.rr.rr.....r.r..r
7 rrrrrrrr.......r..
8 ..rr.rr.rr.......r

Turn = 80.
  012345678901234567
0 ..r.rrr.r.....r...
1 ...r......r....r.r
2 .r..r..rr.......r.
3 rr...r.....r...r..
4 .r.r.r............
5 .rr.......rr...rr.
6 ...r...r...rrr...r
7 r.rr......rr..r..r
8 ...r..r..........r
9 r...r...rr........
0 rr.rr......r.....r
1 rr.r...rr..r..r.r.
2 r....rrrr.....rr..
3 r.r.rr...r.r...r.r
4 .r.............r..
5 ....r....rr.......
6 .r.r.r...........r
7 ..rrrr....r.r....r
8 rrrr.rr.......rrrr

Turn = 96.
  012345678901234567
0 r.r..r.rr..rr.rr..
1 r....rrr..rr.r....
2 r.rr.....r.r.r..r.
3 .rr...r.r......r..
4 r..r...r........r.
5 r.r.rr..r.r.......
6 ...r.r....r....r.r
7 r.rr..rr...r...rr.
8 ....rr...........r
9 rrrr.r........r.r.
0 .r.r.............r
1 r..r.....r.r......
2 r.r...r..r.r..r..r
3 r.rrrr.r..........
4 ...r.............r
5 .....r...rr.......
6 r..rr.......r..rr.
7 .r......r......rr.
8 r.r...r.rrr...r..r

Turn = 112.
  012345678901234567
0 rr.rrrr...rr.r..r.
1 rr....r..........r
2 rrrrr.r.....r.....
3 r.rrrr.........r..
4 rr.....r.r.......r
5 r.r...rrr......rr.
6 ...r....rrr.....r.
7 r...rr.r...rr....r
8 ..rr..rr...r...r.r
9 r.....r........r..
0 rr...r...........r
1 rrrr.r............
2 rr...r......r.r.r.
3 .r........rr.....r
4 r..r.........r....
5 r.....r.rr........
6 r.....rr...r......
7 .rr..........rr...
8 ..rrr..r..r.rrrr..

Turn = 128.
  012345678901234567
0 rrrr.r..r....r.r.r
1 rrrr...r..........
2 rrr..rrrr....r....
3 rrr......r......r.
4 r........r........
5 ...rrr....r.......
6 rrr.r.rr..........
7 .....rrr.r.......r
8 .....r....r....r..
9 r.........r..r..r.
0 .....rr.......rr.r
1 rrr..r..........rr
2 .r..............r.
3 rrrr.........r....
4 ...rr.rr..r.r...r.
5 r...r..rrr.rr....r
6 ..r.rrrrrr........
7 r.rr..r.r........r
8 rrr.r.r.r....r....

Turn = 144.
  012345678901234567
0 rrrrrr.rr..rr..r.r
1 rr....r.r....r...r
2 .......r.r........
3 ....r.r.r......r.r
4 ......rr........rr
5 .r....r.r...r.....
6 rr........r.r...r.
7 .....r.....r.r....
8 ..r...........r...
9 r..r..............
0 rr.r............r.
1 .r.............r.r
2 r.rrrrr.r..r....rr
3 rrr.rr.rrr......rr
4 rr.rr.........rr..
5 rrrr......rr......
6 r.r..r.r...r.r....
7 rrr.rr.r..r.......
8 rrr..r.r..r..r....

Turn = 160.
  012345678901234567
0 rr...r.r.r..rrrrr.
1 rr.rr..rrr.....r.r
2 ...rr.r........r.r
3 r....r......rrr.rr
4 r..........r.r...r
5 .r........r......r
6 rr.r..r.....r...r.
7 rr.r..............
8 rr..........r....r
9 .....r............
0 ...rr...r.r.r.....
1 rrrr.r......r.....
2 r.rr...rr....r....
3 r.......rr.r.rr..r
4 rr.......r..rrr..r
5 rr..r.........r.r.
6 rr...........r...r
7 rrr.......r.......
8 .rr...r.....rrrrr.

Turn = 176.
  012345678901234567
0 r.rr.rr.....rr.r.r
1 .rrrrrr...........
2 ....rrr...........
3 r.rr.rr...........
4 r..r..rr....r..r.r
5 r..r.rrrr....r....
6 .r...rrr.....r....
7 ......rrr.........
8 rr.....r.....r...r
9 r...r.r.........rr
0 r...r.r.......r...
1 ......rrr...r.....
2 .rr.r...r...r..r.r
3 ..r......rr.r.r..r
4 ....rr..r.r......r
5 rr.....rrr....r...
6 rr.....r.r........
7 rrrr....r........r
8 rr..rr.r....r....r

Turn = 192.
  012345678901234567
0 r.rrrrr.rrrr.r....
1 rrrr.....r.r......
2 r..r.......r..r...
3 r.r.r.....r....r.r
4 rrr.r.............
5 rrr...............
6 r.....r..r........
7 r....r......rr....
8 r...rrr....r......
9 ...rrrr..rr...r..r
0 r..rrr.r.r........
1 r.rrr..r.....r....
2 .r..rrr....r.....r
3 .r..r.....r.r.r...
4 rrr.r.......r.....
5 rr...r.........r..
6 ...rrr..r..r......
7 .r.r......r...r...
8 .rrrr...r.r.r...rr

Turn = 208.
  012345678901234567
0 r..rrrr..rr.rrrr..
1 rr.r..r.r..rr.....
2 r..r...r..........
3 .r...r.rr........r
4 rr.r.r...rr.....rr
5 rr..r.....rr.....r
6 r....r............
7 .r.r......rr.r....
8 rr........r.rrrr.r
9 r...r.....r...r.r.
0 r.rr......r..rr..r
1 ..rr..r..........r
2 r.r.r.............
3 rrrr..r....r......
4 rrr.......r...r...
5 rr........rr..r...
6 r...........r.r...
7 ...r...r.rr......r
8 ....r..rrrr...r...

Turn = 224.
  012345678901234567
0 rr.r.....rr...r.rr
1 rr..rrrr......rrr.
2 r.r..r.......rr.r.
3 rrr.....r.......rr
4 r......rr....r....
5 r..rr.....r..r..rr
6 .r.r.rrrr......rr.
7 r..........r.r.r.r
8 rr.r.r........r...
9 r...rr.rr...rr..r.
0 ...rrrr.r....r.r.r
1 ..r.r.....r.......
2 r...........r..r..
3 r..r......r...r...
4 r........r...r.r..
5 ....r........r.r..
6 .r....r..........r
7 .........r..r...r.
8 ..r...r.rrrr...r..

Turn = 240.
  012345678901234567
0 rr...r.r..r.r.rr..
1 rrrrr.r.........r.
2 rr...r...rrr....r.
3 rrr......rrr......
4 rr.r..r.r.rr....r.
5 .rr.r....r.....r..
6 r.......r.r..r....
7 .rrr.........r....
8 .......r.rr.r.....
9 ..rr..r.rr........
0 .rr..r.........r..
1 rr..r.......r.....
2 r...r..r.r........
3 r......rr.......r.
4 r......rr........r
5 ...r...r.........r
6 ..r.r.rr.rrrrr...r
7 .r..r...r....rrrr.
8 .r.....rrr.....rr.

Turn = 256.
  012345678901234567
0 .r.rr...r....r..r.
1 .rrrr....r...r..r.
2 rr...rr...........
3 rrrr..............
4 ....r...rr.....rrr
5 r.r.r.r.rr..rr...r
6 r..r.......r.....r
7 rrr..r...........r
8 .r...r.r....r.r..r
9 .r.r.rr..r.......r
0 .rr..rrr...r..r..r
1 rr..rr...r........
2 ..rr....r...rrrr..
3 r.rr.....rr...r...
4 rrr...............
5 r.r....r.r........
6 ..r..r............
7 ....rrr...r...r...
8 .r...r.r.rr.....rr

Turn = 272.
  012345678901234567
0 .rrrrrrr.....rrr..
1 ..r.r.rr..........
2 .r.r....rr.r.r..rr
3 .r.r...rr....r.r..
4 ..r...........r.rr
5 rrrrr....r........
6 rrr...............
7 r.rr.r..r..r......
8 r..r..r...........
9 rr.....rr.........
0 rrr..r.r.rrr......
1 r.......r....r....
2 r.rr.rr.r.....rr..
3 .r.r............rr
4 rr.rr............r
5 rr......r.......r.
6 rrr..rr.....r.....
7 rr....r........r..
8 rr..r.r..r..r.rr..

Turn = 288.
  012345678901234567
0 r.rrrr.rr..r...rr.
1 rrr....r...r....rr
2 rr.rr..r..r....rrr
3 ....r.r...r.......
4 r........rr....r.r
5 ..............r..r
6 r..r..r...rr.....r
7 .......r..r.......
8 ..r..r..rrr.......
9 rr..r....r.......r
0 r...r......r......
1 r..rr.............
2 r..rr.............
3 .r...r........rr.r
4 r..r.........rr.rr
5 rr.rr.rr......rr..
6 .rr....r...r..r.r.
7 rrr..rrr..r.....rr
8 r.rr..r.......rr.r

Turn = 304.
  012345678901234567
0 .r..rrrrrr..r.r...
1 ..rr.rrrr.........
2 .....r....rr.....r
3 ..........r.r.....
4 rrr.....rr........
5 rr..r...r.rr.r..r.
6 r..........r.r...r
7 rr.rr....r.rr..rrr
8 r..r.rr......rr..r
9 ....rr...r.......r
0 ..rr...rr......r..
1 rr.....r...r.r....
2 rr...rrr.....r.r.r
3 r.......r..r......
4 r.r........rr..r..
5 rr.r..............
6 ..rr.rrr.....rr...
7 ...rrr..r.......r.
8 ....rrr.....r.....

Turn = 320.
  012345678901234567
0 rr......rr..rrr.r.
1 .rr.rrrr..rr......
2 ....r.r...r.......
3 .r..rrr.r.........
4 ...rr.r..r........
5 r.rrrrr....r....r.
6 r.r.r.r.......r.rr
7 rr..r.r....r..rr..
8 rrr....r...r..r.rr
9 r........r........
0 .....rr...........
1 ..rr..........r...
2 rrr...rrr....rr..r
3 r.....r.........rr
4 ..rrr.r.r.........
5 ..rr.r.r.......r..
6 ...rrr..r...r..r..
7 ....rr...r........
8 rrrr.....rr......r

Turn = 336.
  012345678901234567
0 rr.r......rrrrrrr.
1 rr...r..rr....r...
2 .r...r...r...rr...
3 rrr.r........r.r..
4 ..r.......r.r.....
5 .rrr.....r.......r
6 ...r.r...r.....r.r
7 r......r.rr.......
8 ...rr..........r..
9 ..rr..........r...
0 ....rrr...r.rr..r.
1 .r...rr...rrr.....
2 ....r.....r......r
3 .r...rr.....r.....
4 r....rrr...r....r.
5 ..r.rrr......r..r.
6 rr...rrr..r..r...r
7 rrr..rr........r..
8 rr.r....rrr.rr....

Turn = 352.
  012345678901234567
0 r.r..r....r..rrr.r
1 rrr.r......r...r.r
2 .r.rr.....rrr....r
3 .rrrrr....rr..r..r
4 ....r...r.........
5 ......rr..r.r.....
6 r...r........r...r
7 r..r....r....rr...
8 r....r.r..r.......
9 r.......r.......r.
0 rr....rr.rr.r....r
1 .rrr..rr.r.r.r....
2 rrrr.............r
3 rr.....r..r.r.r...
4 rrr.rr......r....r
5 rr....r....r.....r
6 rr................
7 rrr...............
8 rrr.r....r.r...r..

Turn = 368.
  012345678901234567
0 rr.r.rrrr.r.rrr...
1 .r...rr.....rr.r..
2 .....r...r.......r
3 rrr..r..rrr.r.....
4 r....r.rr.rr.r....
5 r..r.....r..r...r.
6 .rr.....rrr.......
7 rr..r....r..r.....
8 rr................
9 rr.r...........r..
0 r..r..r...r.......
1 rr..rr.........r..
2 ..r..............r
3 ..rr.........rr...
4 r.r.r..........r..
5 .rrrr.r.rrr.r...r.
6 r.r......r......rr
7 rrrr....r.........
8 rrr.rr.r...rrr....

Turn = 384.
  012345678901234567
0 r.rr.r.r..r...r.rr
1 rrrr..r......r...r
2 r......rr...r....r
3 rrr..............r
4 rr................
5 rr..r......r..r...
6 rr.rr......r...rr.
7 .........rr.......
8 r.r...............
9 r.r...r......r....
0 .....r..........rr
1 .rrr..rrrr....r..r
2 .rrr........r.....
3 rrrrr.....r....rr.
4 rr....r..........r
5 rrr...r.......r...
6 rrrrr.rr....rr....
7 rrrr....r..r.r....
8 ..r..rr.rrr.r.r...

Turn = 400.
  012345678901234567
0 r.r..rr..........r
1 .rr...r.rr........
2 .......r..rr..rr..
3 .rr........r......
4 ....r.r...r...r...
5 .....r...r.....r..
6 r.....r.rr........
7 ........r.......rr
8 ..r...........r.r.
9 rr....r........r.r
0 .....r.rr.r..r....
1 rr.rr.rr.r..r.....
2 rrr.r....r.......r
3 r.r.r..rrr....r...
4 r.r.r.....r..rrrr.
5 rrr..r.....r..rr..
6 rr..r....r.r...r.r
7 rr..rrr.......rr..
8 rrr..rr....rr.r.r.

Turn = 416.
  012345678901234567
0 ...r..r........r.r
1 r.r........rr....r
2 .....r...........r
3 rr...r..r.........
4 .rr....r...r......
5 ............r.....
6 r.r.....rrr.r.....
7 ...r...rrr......r.
8 ..rrrr.r......r.rr
9 .rrr....r......r.r
0 rrr.rrr....r..r...
1 .r..r.rrr.r....r.r
2 rr...r.rrr........
3 rr.rr..r..........
4 rr....rrr.........
5 r.rrr.......r.r..r
6 r..r..r.r......r.r
7 rr...rr.......r.rr
8 .rr..........rrrrr

Turn = 432.
  012345678901234567
0 rr..r.r....r.r.rrr
1 rrr............r..
2 rrr.rr..........r.
3 rrrrr.r.rr......r.
4 ..rr....r.........
5 ...............rrr
6 ......r..r.......r
7 .......r.rr.......
8 rr.r..r....rrr....
9 .rr.....r.....r...
0 r.rrrr....r...r...
1 rrrr.r............
2 .rr....rr..r......
3 r...r.rr.........r
4 r.r..r.rrr..r...rr
5 ................r.
6 .rr.r.r......rr..r
7 .r..rrrrrrrr......
8 .....r.rr.r.....r.

*** Darwin 3x9 ***
Turn = 0.
  012345678
0 ....f...t
1 ....th.t.
2 ....f....

*** Darwin 7x4 ***
Turn = 0.
  0123
0 ...f
1 ..fh
2 t.r.
3 ....
4 f...
5 ..t.
6 ..fr

Turn = 34.
  0123
0 t...
1 t...
2 ttt.
3 ....
4 f...
5 ..t.
6 ..tt

Turn = 68.
  0123
0 t...
1 t...
2 ttt.
3 ....
4 f...
5 ..t.
6 ..tt

Turn = 102.
  0123
0 t...
1 t...
2 ttt.
3 ....
4 f...
5 ..t.
6 ..tt

Turn = 136.
  0123
0 t...
1 t...
2 ttt.
3 ....
4 f...
5 ..t.
6 ..tt

Turn = 170.
  0123
0 t...
1 t...
2 ttt.
3 ....
4 f...
5 ..t.
6 ..tt

Turn = 204.
  0123
0 t...
1 t...
2 ttt.
3 ....
4 f...
5 ..t.
6 ..tt

*** Darwin 10x16 ***
Turn = 0.
  0123456789012345
0 t....t...h.t..ft
1 .......f........
2 .h...t..f..hh...
3 .rr........r.hrf
4 .r.hrtrr.h...ttt
5 f..fh..fr.rr.r..
6 ..f.......h.h...
7 .t...f.f......t.
8 ..f..ttrf....r..
9 ..f..t.f.....h..

Turn = 76.
  0123456789012345
0 rr.rrrrrr.r.r.rr
1 r.rr.r.r........
2 .r.r.r..........
3 .r..r.....r.....
4 .r....r.r.......
5 rr.....r...rr...
6 ..rr.rr.rr.r....
7 .r.....rr.......
8 r....r.r.......t
9 r...r.r..rr.rr.t

Turn = 152.
  0123456789012345
0 rr...rr.r.......
1 rr...rr.....r...
2 rr...rr......r.r
3 .rr...r........r
4 .rrr............
5 rr.rrr.......r..
6 rrrrr......r....
7 rr....r...rr...r
8 r.r.r..r...r....
9 r.rr.r....r..r.r

Turn = 228.
  0123456789012345
0 .rrrr...r...rrr.
1 .r.........r.rrr
2 rr.........rrrr.
3 rrrr........rr..
4 r...r.....r..rr.
5 rrrr......rr....
6 rrr.r......r....
7 rr.........r....
8 r...r...r...r...
9 ..r..rrrr.......

Turn = 304.
  0123456789012345
0 rrrrrr...rr..rrr
1 rr.rr....r....r.
2 rr..........r...
3 r...r...r.......
4 .......r......r.
5 r.....r........r
6 ...rr..rr....r.r
7 rr....rr....r...
8 .rr.......r.rr..
9 rrr...r.r.r.rr.r

Turn = 380.
  0123456789012345
0 r.rr.r..rr.....r
1 ....r........rrr
2 rr...rr...r.rr..
3 .....r...r.r...r
4 r.rrrr........rr
5 r.r.........r.r.
6 rrr.....rr......
7 ....r....r......
8 rr.r.rr.r.......
9 .rr.r.r.....r.rr

Turn = 456.
  0123456789012345
0 ..rrrrrr.r.rr...
1 r....rr.....rr..
2 .r..rrr.........
3 ...r..r.r...rr..
4 r.r..r..r...rr..
5 rr..............
6 rr.r.r.r.......r
7 .r.r...rr...r...
8 ...rrrr....r....
9 ...rr..rrrr.....

*** Darwin 15x2 ***
Turn = 0.
  01
0 th
1 t.
2 r.
3 r.
4 .t
5 .r
6 ..
7 ..
8 ..
9 h.
0 r.
1 .h
2 ..
3 ..
4 ..

Turn = 37.
  01
0 tt
1 tt
2 t.
3 .t
4 rt
5 .t
6 ..
7 ..
8 ..
9 ..
0 ..
1 ..
2 ..
3 .r
4 ..

Turn = 74.
  01
0 rr
1 ..
2 rt
3 rt
4 r.
5 ..
6 ..
7 .r
8 ..
9 r.
0 ..
1 ..
2 ..
3 ..
4 .r

Turn = 111.
  01
0 .r
1 ..
2 ..
3 .r
4 r.
5 r.
6 .r
7 .r
8 ..
9 ..
0 ..
1 .r
2 .r
3 rr
4 ..

Turn = 148.
  01
0 rr
1 rr
2 r.
3 r.
4 .r
5 .r
6 r.
7 ..
8 ..
9 .r
0 ..
1 ..
2 ..
3 ..
4 ..

Turn = 185.
  01
0 r.
1 ..
2 ..
3 .r
4 r.
5 ..
6 .r
7 .r
8 ..
9 ..
0 ..
1 r.
2 rr
3 ..
4 rr

Turn = 222.
  01
0 rr
1 rr
2 r.
3 r.
4 ..
5 ..
6 rr
7 rr
8 ..
9 ..
0 ..
1 ..
2 ..
3 ..
4 ..

Turn = 259.
  01
0 ..
1 ..
2 ..
3 ..
4 ..
5 .r
6 r.
7 rr
8 rr
9 .r
0 ..
1 r.
2 r.
3 ..
4 r.

Turn = 296.
  01
0 .r
1 ..
2 r.
3 r.
4 r.
5 ..
6 ..
7 ..
8 ..
9 ..
0 .r
1 rr
2 .r
3 .r
4 r.

Turn = 333.
  01
0 ..
1 ..
2 ..
3 ..
4 r.
5 ..
6 rr
7 r.
8 rr
9 r.
0 .r
1 ..
2 ..
3 .r
4 r.

Turn = 370.
  01
0 .r
1 r.
2 ..
3 rr
4 r.
5 r.
6 ..
7 rr
8 ..
9 ..
0 ..
1 ..
2 ..
3 ..
4 rr

*** Darwin 17x6 ***
Turn = 0.
  012345
0 ...f..
1 ...t.r
2 tft...
3 f...f.
4 h.....
5 ......
6 h.r.h.
7 .h.r..
8 hr..r.
9 .tr.hf
0 t...f.
1 f..h..
2 r..t.f
3 ......
4 f..t.f
5 h..t..
6 ..h..r

Turn = 71.
  012345
0 ...t..
1 ...t..
2 ttt...
3 ttt...
4 t.tt..
5 t.....
6 .....h
7 ......
8 .t...t
9 tttttt
0 tt..tt
1 t....t
2 t...tt
3 t....t
4 t.....
5 t.....
6 t.....

Turn = 142.
  012345
0 ...t..
1 ...t..
2 ttt...
3 ttt...
4 t.tt..
5 t.....
6 .....h
7 ......
8 .t...t
9 tttttt
0 tt..tt
1 t....t
2 t...tt
3 t....t
4 t.....
5 t.....
6 t.....

Turn = 213.
  012345
0 ...t..
1 ...t..
2 ttt...
3 ttt...
4 t.tt..
5 t.....
6 .....h
7 ......
8 .t...t
9 tttttt
0 tt..tt
1 t....t
2 t...tt
3 t....t
4 t.....
5 t.....
6 t.....

Turn = 284.
  012345
0 ...t..
1 ...t..
2 ttt...
3 ttt...
4 t.tt..
5 t.....
6 .....h
7 ......
8 .t...t
9 tttttt
0 tt..tt
1 t....t
2 t...tt
3 t....t
4 t.....
5 t.....
6 t.....

Turn = 355.
  012345
0 ...t..
1 ...t..
2 ttt...
3 ttt...
4 t.tt..
5 t.....
6 .....h
7 ......
8 .t...t
9 tttttt
0 tt..tt
1 t....t
2 t...tt
3 t....t
4 t.....
5 t.....
6 t.....

*** Darwin 12x20 ***
Turn = 0.
  01234567890123456789
0 ................h.r.
1 .....f..h...........
2 ..........f.........
3 ................t.r.
4 ..r.................
5 .r...tf...t.........
6 ....................
7 ....................
8 ....f..........f....
9 .........t.....f....
0 ....................
1 ....................

Turn = 15.
  01234567890123456789
0 ....................
1 .....f..............
2 ..........f.....t...
3 ................t...
4 .................r..
5 .....tt...t.........
6 r...................
7 ....................
8 ....f..........f....
9 ........tt.....f...r
0 ....................
1 ...................r

Turn = 30.
  01234567890123456789
0 ........r...........
1 .....f..............
2 ..........f.....t...
3 ................t...
4 ...............r....
5 .....tt...t.........
6 ....................
7 ...........r........
8 ....f...............
9 ........tt.....f....
0 ........t...........
1 ................r...

Turn = 45.
  01234567890123456789
0 ..................rr
1 .....f.............r
2 ..........f.....t...
3 ................t...
4 ....................
5 .....tt...t.........
6 ....................
7 ....................
8 ....f...............
9 ........tt.....f....
0 r.......t...........
1 ....................

Turn = 60.
  01234567890123456789
0 ........r...........
1 .....f..............
2 ..........f.....t...
3 ................t...
4 ....................
5 .....tt...t.........
6 ....................
7 ....................
8 ....f...............
9 ........tt.....f....
0 ........t...........
1 .............r.r...r

Turn = 75.
  01234567890123456789
0 .............r......
1 .....f..............
2 ..........f.....t...
3 ................t...
4 ....................
5 .....tt...t.........
6 r...................
7 ....................
8 ....f..............r
9 ........tt.....f....
0 ........t...........
1 ........t...........

Turn = 90.
  01234567890123456789
0 ....................
1 r....f.............r
2 ..........f.....t...
3 r...............t...
4 ....................
5 .....tt...t.........
6 ....................
7 ....................
8 ....f...............
9 ........tt.....f....
0 ........t...........
1 ........t...........

Turn = 105.
  01234567890123456789
0 ....................
1 .....f..............
2 ..........f.....t...
3 ..............r.t...
4 ....................
5 .....tt...t.........
6 ....................
7 ....................
8 ....f...............
9 ........tt.....f....
0 ........t...........
1 ..r.....t......r....

Turn = 120.
  01234567890123456789
0 .............r......
1 .....f..............
2 ..........f.....t...
3 ....................
4 ....................
5 .....tt...t.........
6 ....................
7 ....................
8 ....f...............
9 ........tt.....f....
0 ........t...........
1 .......ttt........r.

Turn = 135.
  01234567890123456789
0 ....................
1 r....f..............
2 ..........f.....t...
3 ....................
4 ....................
5 .....tt...t.........
6 ....................
7 ....................
8 ....f...............
9 ........tt.....f....
0 ........t...........
1 .......tttt.........

Turn = 150.
  01234567890123456789
0 ....................
1 .....f..............
2 ..........f.....t...
3 ....................
4 ....................
5 .....tt...t.........
6 ....................
7 ....................
8 ....f...............
9 ........tt.....f....
0 ........t...........
1 ....r..tttt.........

*** Darwin 13x12 ***
Turn = 0.
  012345678901
0 ......t.....
1 ....r..t....
2 r.....th....
3 .f.f...r....
4 ....h..f....
5 .t.....f....
6 .....h.rh...
7 ...rt...r.tf
8 ............
9 r......h..ht
0 .h......t...
1 ft.r........
2 .tr.f.h.....

Turn = 70.
  012345678901
0 rrrrr...r..r
1 rrr......r..
2 rr.......r..
3 rr..r..r....
4 ...........r
5 .r..........
6 r...........
7 r...........
8 .r..........
9 ...r.......r
0 .r..........
1 rr...r......
2 .tttt......r

Turn = 140.
  012345678901
0 .rr....rr...
1 .r.......r.r
2 ..r..rr.....
3 r.......rr.r
4 rr.........r
5 .rrr....rr..
6 ....r...r..r
7 r..r..r....r
8 ............
9 ......r.....
0 ............
1 ....rr.....r
2 ......r.....

Turn = 210.
  012345678901
0 ........r.r.
1 .........r..
2 r......rr.r.
3 .......rr..r
4 ....r.......
5 ....r..r...r
6 r....r....r.
7 r.r....r.rr.
8 r...........
9 .r..........
0 r.r......r..
1 rr..........
2 .r....r..rrr

Turn = 280.
  012345678901
0 ......r.rr.r
1 r......r.r..
2 ............
3 r.....r....r
4 r....r......
5 r.....rr....
6 r.....r....r
7 .rr.........
8 ..r.........
9 ..r........r
0 ...r.r.rrr..
1 ..r...r...r.
2 r....r..r...

Turn = 350.
  012345678901
0 ..r....r....
1 .r...r...r..
2 ..rr......r.
3 r......r....
4 r.r.r..r.r..
5 .rr.........
6 r.rr........
7 ............
8 r...........
9 ............
0 rr..rr.....r
1 ..r.........
2 rrr..rrr...r

*** Darwin 19x9 ***
Turn = 0.
  012345678
0 h........
1 ........f
2 ..h....r.
3 .........
4 .....h...
5 .....rf.r
6 .....h...
7 .........
8 .........
9 .f.......
0 .........
1 ....h....
2 ...h...r.
3 r........
4 .........
5 ....h....
6 ....h....
7 t.....r..
8 ......rt.

Turn = 20.
  012345678
0 r.....r.r
1 ..r...r..
2 r........
3 .........
4 .........
5 ........r
6 .........
7 .........
8 .r....r..
9 .f.....rr
0 .........
1 .........
2 ........r
3 r........
4 r........
5 .........
6 .........
7 .....r.t.
8 r......tt

Turn = 40.
  012345678
0 .........
1 ......r..
2 .........
3 .....r..r
4 ........r
5 .........
6 .........
7 ......r..
8 r........
9 .........
0 ........r
1 .r......r
2 r......rr
3 ........r
4 ........r
5 ..r......
6 .r.......
7 ..r.....r
8 .......rr

Turn = 60.
  012345678
0 r.......r
1 ........r
2 .........
3 .........
4 ........r
5 .........
6 r........
7 .........
8 .r.......
9 .........
0 ........r
1 r........
2 r........
3 .....r.r.
4 .........
5 ...r.....
6 ...rr....
7 ..r......
8 .rrr.r..r

Turn = 80.
  012345678
0 r.r......
1 ...r.....
2 .........
3 .........
4 .........
5 .........
6 ........r
7 .........
8 ....r...r
9 .....r..r
0 .........
1 .....r.r.
2 rr.......
3 .........
4 r.......r
5 r....r..r
6 .........
7 .........
8 .r...r..r

Turn = 100.
  012345678
0 ...r..r..
1 .r.......
2 .r.......
3 rr.....rr
4 ......r.r
5 r.r......
6 .........
7 .........
8 .........
9 .....r...
0 .........
1 ........r
2 .........
3 .........
4 .........
5 ....r..r.
6 .....r...
7 .....r...
8 .....r.r.

Turn = 120.
  012345678
0 ..rrr.r.r
1 ..r.....r
2 ......r..
3 .........
4 ....r....
5 .........
6 .........
7 .........
8 r..r.....
9 .........
0 .........
1 .........
2 .........
3 r........
4 .........
5 r....r.r.
6 r........
7 r.....r..
8 ...r..r..

Turn = 140.
  012345678
0 ..r.r....
1 ....r....
2 ........r
3 .........
4 .........
5 .........
6 .......r.
7 .....r...
8 .........
9 ........r
0 r..r.....
1 .........
2 .........
3 .........
4 r.r.r....
5 .rr......
6 .......r.
7 rr.......
8 rr.r.....

Turn = 160.
  012345678
0 r...r..r.
1 r........
2 .........
3 rr.....r.
4 ........r
5 ..r...r..
6 ....r.r..
7 .....r.r.
8 .........
9 ...r.....
0 .........
1 .........
2 .........
3 .........
4 .........
5 .........
6 r...r....
7 .........
8 r..r....r

Turn = 180.
  012345678
0 ...r.r.rr
1 .....r...
2 .....r...
3 .........
4 r........
5 ..rrr....
6 .r.......
7 ....r....
8 .........
9 .........
0 ........r
1 .........
2 .....r...
3 r........
4 ........r
5 ....r....
6 .....r.rr
7 .........
8 .........

Turn = 200.
  012345678
0 .r...r...
1 ...r.....
2 .........
3 .........
4 .........
5 .........
6 .........
7 rr.......
8 r..r....r
9 ....r...r
0 .r...r...
1 ...rr....
2 r........
3 ........r
4 .......r.
5 .........
6 r........
7 .........
8 ..r....r.

Turn = 220.
  012345678
0 .r.r..r.r
1 .........
2 r........
3 ........r
4 ..rr.....
5 ..r......
6 rr.......
7 ........r
8 .......r.
9 ......r..
0 .........
1 .........
2 ........r
3 r........
4 r.......r
5 r........
6 .........
7 r........
8 .........

Turn = 240.
  012345678
0 r.rr.....
1 .........
2 .......rr
3 rrr...r..
4 rr.......
5 r........
6 .r.......
7 .r.......
8 r........
9 .r.......
0 .........
1 .........
2 .........
3 ........r
4 .........
5 .........
6 .........
7 .........
8 ...rrr...

Turn = 260.
  012345678
0 rr...r.r.
1 .........
2 .........
3 .......r.
4 .......r.
5 r.......r
6 r........
7 .........
8 .........
9 ...r.....
0 ......r..
1 ...r.....
2 r.r......
3 ........r
4 .......r.
5 .....r...
6 .....r...
7 ........r
8 ........r

Turn = 280.
  012345678
0 .......rr
1 .....r.rr
2 ........r
3 .........
4 .........
5 .......r.
6 ......rr.
7 .........
8 r.r......
9 .........
0 .r.......
1 .........
2 ........r
3 r........
4 r......rr
5 ..r....r.
6 .........
7 .........
8 ..r......

Turn = 300.
  012345678
0 .r.......
1 .........
2 .........
3 .........
4 .........
5 r......r.
6 ........r
7 .........
8 ..r.r....
9 ........r
0 ..rr.....
1 rr.......
2 .r.......
3 .......r.
4 .........
5 .......rr
6 r.......r
7 r......r.
8 r........

Turn = 320.
  012345678
0 .........
1 ........r
2 .........
3 ....r....
4 r........
5 .........
6 ........r
7 ...r.....
8 .........
9 .........
0 .......r.
1 r........
2 .........
3 .........
4 r...r.r..
5 ........r
6 rr.r.....
7 r.r.....r
8 .rr.....r

Turn = 340.
  012345678
0 rr.......
1 .........
2 ......r..
3 ......r..
4 .r.......
5 .........
6 ........r
7 .......r.
8 .........
9 .........
0 .........
1 ...r.....
2 .rr...r.r
3 .r......r
4 .r.....r.
5 .......r.
6 .........
7 .........
8 rrr......

Turn = 360.
  012345678
0 ..r......
1 rr.......
2 r.......r
3 ..r....r.
4 .........
5 .........
6 ...rr....
7 .........
8 .........
9 r.......r
0 r......rr
1 ........r
2 .........
3 .r.......
4 .........
5 r........
6 .........
7 ......r..
8 .....r.r.

Turn = 380.
  012345678
0 rr.......
1 .........
2 .........
3 .....r...
4 ........r
5 .........
6 .......rr
7 ........r
8 r.......r
9 ......rr.
0 .....r...
1 .........
2 ....r....
3 ......r..
4 .........
5 r........
6 .........
7 r.......r
8 r.r...r..

Turn = 400.
  012345678
0 ......rr.
1 .........
2 .........
3 .....r..r
4 .........
5 .........
6 r....r...
7 .........
8 r........
9 rr.......
0 .........
1 r.....r..
2 r........
3 .........
4 r........
5 r........
6 ....r....
7 .r....r..
8 r......rr

Turn = 420.
  012345678
0 r......r.
1 rr...rr..
2 ....r....
3 .....r..r
4 .r..r....
5 ..r......
6 .........
7 r...r....
8 r........
9 .........
0 r........
1 .........
2 .........
3 .........
4 r........
5 .........
6 .........
7 .......r.
8 .....rr..

Turn = 440.
  012345678
0 ......r..
1 .........
2 rr.......
3 .........
4 r........
5 .......r.
6 rr.......
7 .........
8 .........
9 .........
0 .........
1 ...r.r...
2 .r....r..
3 r........
4 rr.......
5 .........
6 .....r..r
7 ....r....
8 ...rrr...

Turn = 460.
  012345678
0 .......rr
1 ........r
2 ..r....rr
3 .......r.
4 .........
5 .........
6 .....r.rr
7 ....r..r.
8 ...r.....
9 .........
0 .........
1 r........
2 ......r.r
3 .........
4 ....r....
5 .r.......
6 .........
7 .........
8 rr.......

*** Darwin 11x14 ***
Turn = 0.
  01234567890123
0 .....f......f.
1 .f............
2 ...r..ht.r.rh.
3 r..........t..
4 .f.f.....t..t.
5 ....r..h...f..
6 ..t..h......t.
7 .........f.f..
8 .r..r......f.r
9 t.h.rr....t...
0 ...........f..

Turn = 50.
  01234567890123
0 r.r.......rr..
1 ....rr.r..r.rr
2 ............rr
3 .............r
4 .....rr..r...r
5 ....r...rr....
6 r.............
7 .....r.r...r..
8 .r...r........
9 .r.r..r......r
0 r...rr........

Turn = 100.
  01234567890123
0 .r..r..r.rr.r.
1 .r...........r
2 rr..rr....r...
3 .........rr..r
4 r.............
5 ....rr...r...r
6 .r.r..........
7 ..............
8 .............r
9 r........r...r
0 .r.rrr..r.r...

Turn = 150.
  01234567890123
0 r..r.rrr...rr.
1 ..r...........
2 ..r...rrr.....
3 ...........r.r
4 r...r....r....
5 .r.rr...r..rr.
6 r.......r..rrr
7 .......rr....r
8 .......r......
9 ..............
0 r.............

Turn = 200.
  01234567890123
0 r.........rr.r
1 rr........r...
2 .rr.r.....r...
3 .r....r.......
4 ..rr.r........
5 r..r..........
6 ...........r.r
7 .r............
8 rr..r....r....
9 .r.r.........r
0 rrr.......r.r.

Turn = 250.
  01234567890123
0 .rr.....r....r
1 r.r..........r
2 rrr.....r.....
3 r........r....
4 .......r......
5 ......r..r..rr
6 ..r.....r.....
7 ......r....r.r
8 .....r........
9 .....r.r......
0 r.rrrrr......r

*** Darwin 4x5 ***
Turn = 0.
  01234
0 h....
1 .....
2 ..t.t
3 ..th.

Turn = 4.
  01234
0 h..h.
1 .....
2 ..t.t
3 ..t..

Turn = 8.
  01234
0 h..h.
1 .....
2 ..t.t
3 ..t..

Turn = 12.
  01234
0 h..h.
1 .....
2 ..t.t
3 ..t..

Turn = 16.
  01234
0 h..h.
1 .....
2 ..t.t
3 ..t..

Turn = 20.
  01234
0 h..h.
1 .....
2 ..t.t
3 ..t..

Turn = 24.
  01234
0 h..h.
1 .....
2 ..t.t
3 ..t..

Turn = 28.
  01234
0 h..h.
1 .....
2 ..t.t
3 ..t..

Turn = 32.
  01234
0 h..h.
1 .....
2 ..t.t
3 ..t..

Turn = 36.
  01234
0 h..h.
1 .....
2 ..t.t
3 ..t..

Turn = 40.
  01234
0 h..h.
1 .....
2 ..t.t
3 ..t..

Turn = 44.
  01234
0 h..h.
1 .....
2 ..t.t
3 ..t..

Turn = 48.
  01234
0 h..h.
1 .....
2 ..t.t
3 ..t..

Turn = 52.
  01234
0 h..h.
1 .....
2 ..t.t
3 ..t..

Turn = 56.
  01234
0 h..h.
1 .....
2 ..t.t
3 ..t..

Turn = 60.
  01234
0 h..h.
1 .....
2 ..t.t
3 ..t..

Turn = 64.
  01234
0 h..h.
1 .....
2 ..t.t
3 ..t..

Turn = 68.
  01234
0 h..h.
1 .....
2 ..t.t
3 ..t..

Turn = 72.
  01234
0 h..h.
1 .....
2 ..t.t
3 ..t..

Turn = 76.
  01234
0 h..h.
1 .....
2 ..t.t
3 ..t..

Turn = 80.
  01234
0 h..h.
1 .....
2 ..t.t
3 ..t..

Turn = 84.
  01234
0 h..h.
1 .....
2 ..t.t
3 ..t..

Turn = 88.
  01234
0 h..h.
1 .....
2 ..t.t
3 ..t..

Turn = 92.
  01234
0 h..h.
1 .....
2 ..t.t
3 ..t..

Turn = 96.
  01234
0 h..h.
1 .....
2 ..t.t
3 ..t..

Turn = 100.
  01234
0 h..h.
1 .....
2 ..t.t
3 ..t..

Turn = 104.
  01234
0 h..h.
1 .....
2 ..t.t
3 ..t..

Turn = 108.
  01234
0 h..h.
1 .....
2 ..t.t
3 ..t..

Turn = 112.
  01234
0 h..h.
1 .....
2 ..t.t
3 ..t..

Turn = 116.
  01234
0 h..h.
1 .....
2 ..t.t
3 ..t..

Turn = 120.
  01234
0 h..h.
1 .....
2 ..t.t
3 ..t..

Turn = 124.
  01234
0 h..h.
1 .....
2 ..t.t
3 ..t..

Turn = 128.
  01234
0 h..h.
1 .....
2 ..t.t
3 ..t..

Turn = 132.
  01234
0 h..h.
1 .....
2 ..t.t
3 ..t..

Turn = 136.
  01234
0 h..h.
1 .....
2 ..t.t
3 ..t..

Turn = 140.
  01234
0 h..h.
1 .....
2 ..t.t
3 ..t..

Turn = 144.
  01234
0 h..h.
1 .....
2 ..t.t
3 ..t..

Turn = 148.
  01234
0 h..h.
1 .....
2 ..t.t
3 ..t..

Turn = 152.
  01234
0 h..h.
1 .....
2 ..t.t
3 ..t..

Turn = 156.
  01234
0 h..h.
1 .....
2 ..t.t
3 ..t..

Turn = 160.
  01234
0 h..h.
1 .....
2 ..t.t
3 ..t..

Turn = 164.
  01234
0 h..h.
1 .....
2 ..t.t
3 ..t..

Turn = 168.
  01234
0 h..h.
1 .....
2 ..t.t
3 ..t..

Turn = 172.
  01234
0 h..h.
1 .....
2 ..t.t
3 ..t..

Turn = 176.
  01234
0 h..h.
1 .....
2 ..t.t
3 ..t..

Turn = 180.
  01234
0 h..h.
1 .....
2 ..t.t
3 ..t..

Turn = 184.
  01234
0 h..h.
1 .....
2 ..t.t
3 ..t..

Turn = 188.
  01234
0 h..h.
1 .....
2 ..t.t
3 ..t..

Turn = 192.
  01234
0 h..h.
1 .....
2 ..t.t
3 ..t..

Turn = 196.
  01234
0 h..h.
1 .....
2 ..t.t
3 ..t..

Turn = 200.
  01234
0 h..h.
1 .....
2 ..t.t
3 ..t..

Turn = 204.
  01234
0 h..h.
1 .....
2 ..t.t
3 ..t..

Turn = 208.
  01234
0 h..h.
1 .....
2 ..t.t
3 ..t..

Turn = 212.
  01234
0 h..h.
1 .....
2 ..t.t
3 ..t..

Turn = 216.
  01234
0 h..h.
1 .....
2 ..t.t
3 ..t..

Turn = 220.
  01234
0 h..h.
1 .....
2 ..t.t
3 ..t..

Turn = 224.
  01234
0 h..h.
1 .....
2 ..t.t
3 ..t..

Turn = 228.
  01234
0 h..h.
1 .....
2 ..t.t
3 ..t..

Turn = 232.
  01234
0 h..h.
1 .....
2 ..t.t
3 ..t..

Turn = 236.
  01234
0 h..h.
1 .....
2 ..t.t
3 ..t..

Turn = 240.
  01234
0 h..h.
1 .....
2 ..t.t
3 ..t..

Turn = 244.
  01234
0 h..h.
1 .....
2 ..t.t
3 ..t..

Turn = 248.
  01234
0 h..h.
1 .....
2 ..t.t
3 ..t..

Turn = 252.
  01234
0 h..h.
1 .....
2 ..t.t
3 ..t..

Turn = 256.
  01234
0 h..h.
1 .....
2 ..t.t
3 ..t..

Turn = 260.
  01234
0 h..h.
1 .....
2 ..t.t
3 ..t..

Turn = 264.
  01234
0 h..h.
1 .....
2 ..t.t
3 ..t..

Turn = 268.
  01234
0 h..h.
1 .....
2 ..t.t
3 ..t..

Turn = 272.
  01234
0 h..h.
1 .....
2 ..t.t
3 ..t..

Turn = 276.
  01234
0 h..h.
1 .....
2 ..t.t
3 ..t..

Turn = 280.
  01234
0 h..h.
1 .....
2 ..t.t
3 ..t..

Turn = 284.
  01234
0 h..h.
1 .....
2 ..t.t
3 ..t..

Turn = 288.
  01234
0 h..h.
1 .....
2 ..t.t
3 ..t..

Turn = 292.
  01234
0 h..h.
1 .....
2 ..t.t
3 ..t..

Turn = 296.
  01234
0 h..h.
1 .....
2 ..t.t
3 ..t..

Turn = 300.
  01234
0 h..h.
1 .....
2 ..t.t
3 ..t..

Turn = 304.
  01234
0 h..h.
1 .....
2 ..t.t
3 ..t..

Turn = 308.
  01234
0 h..h.
1 .....
2 ..t.t
3 ..t..

Turn = 312.
  01234
0 h..h.
1 .....
2 ..t.t
3 ..t..

Turn = 316.
  01234
0 h..h.
1 .....
2 ..t.t
3 ..t..

Turn = 320.
  01234
0 h..h.
1 .....
2 ..t.t
3 ..t..

Turn = 324.
  01234
0 h..h.
1 .....
2 ..t.t
3 ..t..

*** Darwin 13x17 ***
Turn = 0.
  01234567890123456
0 r....ht..f.r..r..
1 .r.....h..rt..hhf
2 t.....tf..t..th..
3 rh.h.........rh.h
4 ...fth..h...t...h
5 ..h.r..hrhth..r..
6 ....ft.f..hhr...h
7 ..r.r..r....h..r.
8 ......ft..r..rr..
9 .fh.f...fht.t....
0 rtt..rf.rrf...rrh
1 ...f.....t....fhr
2 t....f.....h..tr.

Turn = 31.
  01234567890123456
0 .r..rr...rtrt....
1 t.r..rr..rrttt...
2 trtt..r....tttt..
3 tttt..rt..rt.t...
4 ttt..r.r.....tttt
5 t....rrr.....t.r.
6 tt.....r..r......
7 tt...............
8 r...rr.r.r.......
9 r...r.....t......
0 rrr.r..r.ttt.....
1 r.r......rrrr....
2 ...r.r..r.rr..r.r

Turn = 62.
  01234567890123456
0 ttttt....r...r.r.
1 t.tttt.......r..r
2 tttttt.........rr
3 ttttttt.rr.......
4 ttttr.rr.........
5 ttttrrr..r.......
6 r.tt.........rrr.
7 rrrr.......r.....
8 rrr.........rr...
9 rr......r........
0 .r..r.rr......r.r
1 r.r..rr.........r
2 ...rrrr...rrr....

Turn = 93.
  01234567890123456
0 tttttttt..rr.....
1 t.tttttt....r....
2 tttttt...........
3 ttttttttt......rr
4 tttttttr......r..
5 tttttt...r...r...
6 ttttrrt..........
7 tt.rrr...........
8 t..............r.
9 tr....r.r........
0 t.r..r...r.r....r
1 ............r....
2 .rrrr..rr......r.

Turn = 124.
  01234567890123456
0 tttttttt.r.r.....
1 t.tttttt.......rr
2 ttttttt.r......r.
3 tttttttrr........
4 tttttttttrr......
5 tttttt..trr......
6 tttttttt.........
7 ttrrrtt..........
8 ttr...r..........
9 t................
0 r.......r........
1 rr...............
2 rr........r......

Turn = 155.
  01234567890123456
0 ttttttttttt....r.
1 t.ttttttt........
2 ttttttttt........
3 tttttttt.........
4 ttttttttt........
5 tttttttrttt..r...
6 tttttt.r.tt......
7 tttttt...........
8 tttt.............
9 ttt..............
0 t................
1 t.............r..
2 ................r

Turn = 186.
  01234567890123456
0 ttttttttttt......
1 t.ttttttt........
2 ttttttttt........
3 tttttttt.........
4 ttttttttt........
5 ttttttttttt......
6 tttttt.t.tt......
7 tttttt...........
8 tttt.............
9 ttt..............
0 t...............r
1 t...........r..r.
2 t................

Turn = 217.
  01234567890123456
0 ttttttttttt......
1 t.ttttttt........
2 ttttttttt........
3 tttttttt.........
4 ttttttttt.t......
5 ttttttttttt......
6 tttttt.t.tt......
7 tttttt...........
8 tttt.............
9 ttt..............
0 tt...............
1 t................
2 t.........r......

Turn = 248.
  01234567890123456
0 ttttttttttt......
1 t.ttttttt........
2 ttttttttt........
3 tttttttt.........
4 ttttttttt.t......
5 ttttttttttt......
6 tttttt.t.tt......
7 tttttt...........
8 tttt.............
9 ttt..............
0 tt...............
1 t................
2 tt...............

*** Darwin 19x15 ***
Turn = 0.
  012345678901234
0 h.....f.....f..
1 ..h...f...f.h..
2 .f....h.f.ffh..
3 ..........rh..r
4 ..r............
5 .frff......t...
6 ..........t....
7 ..........r....
8 ...............
9 ............f..
0 .......hhfttf..
1 ..............t
2 ....r..........
3 ...h..........f
4 .....t.........
5 f..h..........r
6 ...........t...
7 .....f.........
8 .......rt....fh

Turn = 58.
  012345678901234
0 ...r.rr.rr....r
1 ......r.r.....r
2 ......r........
3 ...............
4 ......r........
5 r.........r....
6 ............rr.
7 ...............
8 ...............
9 ..............r
0 r..........r...
1 ..............r
2 ..r..........rr
3 r..........r...
4 rr.......rtrr..
5 ..r...r....r...
6 r........r.t...
7 .r.r........r..
8 r.r....r.rrr...

Turn = 116.
  012345678901234
0 r..r..r....r.rr
1 r...r...r...r.r
2 r...r..........
3 ...............
4 r..rr..........
5 ..rr...........
6 ..........r....
7 rr.r...r.....rr
8 .........rr....
9 ..r............
0 .r.............
1 ..............r
2 ....r..........
3 ............r..
4 .....r.........
5 rr......r....rr
6 ............r..
7 ............r..
8 ..rr......rr..r

Turn = 174.
  012345678901234
0 r...........r..
1 r.....r.....r..
2 .....r.......rr
3 r.r.r......r.r.
4 .....r....r..rr
5 ......r..r...r.
6 r......r....r..
7 .....r.......r.
8 .r........r....
9 ...............
0 ...............
1 .....r.........
2 r............r.
3 rr.............
4 ...............
5 ...............
6 r.rr...........
7 ..r...r........
8 rr..rrr.r.r.r..

*** Darwin 18x9 ***
Turn = 0.
  012345678
0 .....f...
1 .........
2 .........
3 ...f.....
4 ..r......
5 t........
6 .h.......
7 ......ff.
8 .........
9 .........
0 ........r
1 .........
2 .........
3 .........
4 ........f
5 ....h....
6 ..t......
7 .........

Turn = 50.
  012345678
0 r........
1 ...r..r..
2 .......r.
3 ...f....r
4 .........
5 t........
6 t........
7 t.....f..
8 .........
9 .........
0 .........
1 .........
2 .........
3 .........
4 .........
5 .........
6 .........
7 ........r

Turn = 100.
  012345678
0 ...r.....
1 .........
2 .........
3 .......r.
4 .........
5 .........
6 t.....r..
7 t........
8 t........
9 t.......r
0 .........
1 .........
2 r........
3 .........
4 .........
5 .........
6 .......r.
7 ........r

*** Darwin 7x12 ***
Turn = 0.
  012345678901
0 h...r......h
1 r...h....t..
2 .t......t...
3 ..h..ff.hr..
4 ...h......t.
5 ...fr...r...
6 ..ftt.hr.hf.

Turn = 69.
  012345678901
0 r.r.r.r.r...
1 ....r.......
2 ..r.........
3 r..r........
4 .r..rr......
5 ......rt..t.
6 r..rtttttttt

Turn = 138.
  012345678901
0 r..r.....r.r
1 rr......r.rr
2 .rrr.r......
3 r.rr.r..r...
4 ............
5 .r..........
6 rrrr.rr.....

Turn = 207.
  012345678901
0 r.....r.r..r
1 .........r..
2 .rr.........
3 rr....r..r..
4 .rr...rr....
5 r.r...r.rr.r
6 r...rr.....r

Turn = 276.
  012345678901
0 .....rrr.rrr
1 rr..r..r.rr.
2 rr.....rr...
3 r.r...r.....
4 ............
5 ..........r.
6 r....r.r.r.r

Turn = 345.
  012345678901
0 rrr...r....r
1 r...r.r.....
2 rr..........
3 .r........r.
4 ..........rr
5 rr.......rr.
6 .r.r...rrrrr

Turn = 414.
  012345678901
0 rrr....rr..r
1 r....r...r..
2 .r........r.
3 rr...r.r.r..
4 ..r...r.....
5 r.....r....r
6 r.....r.r..r
